﻿{
	"TME_p/neoplasias_malignas": "8,4",
	"Óbitos_p/neopl.pulm_traq_brônq": 2,
	"TME_p/neopl.estômago": "0,2",
	"Óbitos_p/neopl.cólon_reto_ânus": 2,
	"Óbitos_p/neopl.mama_feminina": "-",
	"TME_p/neopl.cólon_reto_ânus": "0,3",
	"TME_p/neopl.esôfago": "-",
	"Óbitos_p/neopl.esôfago": "-",
	"TME_p/neopl.mama_feminina": "...",
	"População": 665035,
	"TME_p/neopl.próstata": "-",
	"Óbitos_p/neopl_malignas": 56,
	"TME_p/neopl.demais_localiz.": "7,7",
	"Óbitos_p/neopl.estômago": 1,
	"UF": "Distrito Federal",
	"Óbitos_p/neopl.colo_do_útero": "-",
	"TME_p/neopl.pulmão_traq_brônq": "0,3",
	"TME_p/neopl.colo_do_útero": "...",
	"Óbitos_p/neopl.próstata": "-",
	"Óbitos_p/neopl.demais_localiz.": 51
}