﻿[{
	"População": 257318,
	"Óbitos_por_aids": "-",
	"Faixa etária": "Menor 13 anos",
	"TME_por_aids": "-"
}, {
	"População": 42816,
	"Óbitos_por_aids": "-",
	"Faixa etária": "13 a 14 anos",
	"TME_por_aids": "-"
}, {
	"População": 111954,
	"Óbitos_por_aids": "1",
	"Faixa etária": "15 a 19 anos",
	"TME_por_aids": "0,9"
}, {
	"População": 266340,
	"Óbitos_por_aids": "5",
	"Faixa etária": "20 a 29 anos",
	"TME_por_aids": "1,9"
}, {
	"População": 246963,
	"Óbitos_por_aids": "14",
	"Faixa etária": "30 a 39 anos",
	"TME_por_aids": "5,7"
}, {
	"População": 183542,
	"Óbitos_por_aids": "11",
	"Faixa etária": "40 a 49 anos",
	"TME_por_aids": "6,0"
}, {
	"População": 119716,
	"Óbitos_por_aids": "1",
	"Faixa etária": "50 a 59 anos",
	"TME_por_aids": "0,8"
}, {
	"População": 112631,
	"Óbitos_por_aids": "1",
	"Faixa etária": "60 anos e mais",
	"TME_por_aids": "0,9"
}, {
	"População": 1341280,
	"Óbitos_por_aids": "33",
	"Faixa etária": "Total",
	"TME_por_aids": "2,5"
}]