﻿[{
	"Número_de_internações": 578,
	"Grupos de doenças": "Quedas",
	"Proporção_deinternações(%)": "25,31"
}, {
	"Número_de_internações": 515,
	"Grupos de doenças": "Acidentes de transporte",
	"Proporção_deinternações(%)": "22,55"
}, {
	"Número_de_internações": 89,
	"Grupos de doenças": "Intoxicações",
	"Proporção_deinternações(%)": "3,90"
}, {
	"Número_de_internações": 353,
	"Grupos de doenças": "Agressões",
	"Proporção_deinternações(%)": "15,46"
}, {
	"Número_de_internações": 32,
	"Grupos de doenças": "Lesões autoprovocadas voluntariamente",
	"Proporção_deinternações(%)": "1,40"
}, {
	"Número_de_internações": 717,
	"Grupos de doenças": "Demais causas externas",
	"Proporção_deinternações(%)": "31,39"
}, {
	"Número_de_internações": 2284,
	"Grupos de doenças": "Total",
	"Proporção_deinternações(%)": "100,00"
}]